<?xml version="1.0" encoding="UTF-8" standalone="no"?>
<svg
   xmlns:dc="http://purl.org/dc/elements/1.1/"
   xmlns:cc="http://creativecommons.org/ns#"
   xmlns:rdf="http://www.w3.org/1999/02/22-rdf-syntax-ns#"
   xmlns:svg="http://www.w3.org/2000/svg"
   xmlns="http://www.w3.org/2000/svg"
   xmlns:sodipodi="http://sodipodi.sourceforge.net/DTD/sodipodi-0.dtd"
   xmlns:inkscape="http://www.inkscape.org/namespaces/inkscape"
   version="1.0"
   x="0px"
   y="0px"
   viewBox="0 0 100 100"
   enable-background="new 0 0 80 80"
   xml:space="preserve"
   id="svg2"
   inkscape:version="0.92.3 (2405546, 2018-03-11)"
   sodipodi:docname="lmm-cl.svg"
   width="100"
   height="100"><metadata
     id="metadata10"><rdf:RDF><cc:Work
         rdf:about=""><dc:format>image/svg+xml</dc:format><dc:type
           rdf:resource="http://purl.org/dc/dcmitype/StillImage" /><dc:title></dc:title></cc:Work></rdf:RDF></metadata><defs
     id="defs8" /><sodipodi:namedview
     pagecolor="#ffffff"
     bordercolor="#666666"
     borderopacity="1"
     objecttolerance="10"
     gridtolerance="10"
     guidetolerance="10"
     inkscape:pageopacity="0"
     inkscape:pageshadow="2"
     inkscape:window-width="1277"
     inkscape:window-height="634"
     id="namedview6"
     showgrid="false"
     inkscape:zoom="2.36"
     inkscape:cx="21.772743"
     inkscape:cy="50"
     inkscape:window-x="208"
     inkscape:window-y="208"
     inkscape:window-maximized="0"
     inkscape:current-layer="svg2" /><path
     d="m 55.597646,70.013108 -5.940517,18.033439 -4.230019,0 2.745531,-18.056554 7.425005,0.02311 0,0 z m -37.547513,0.887353 6.517105,17.146086 -4.230019,0 -7.780717,-13.954952 5.493631,-3.191134 0,0 z M 64.304242,15.884538 c 0,-2.168944 1.758013,-3.928241 3.928241,-3.928241 0,0 14.891103,-0.0064 15.023372,0 1.738751,0.09117 3.46466,0.739675 4.901633,1.9455 L 100,23.837332 l 0,1.832494 c 0,2.709575 -2.197201,4.905486 -4.905491,4.905486 l -16.792938,0 0,1.421564 6.113879,2.676186 c 0,0 -4.626824,10.388844 -8.018286,18.843744 -4.087477,10.188514 -10.301521,12.493579 -11.416171,12.82746 l 2.199764,21.700997 -4.228734,0 -6.03683,-21.654767 -38.107407,-0.115574 -11.9439587,6.92932 -2.63381,14.841021 -4.23001806500003,0 0,-18.934919 L 6.2384423,62.873186 l 0,-11.045049 c -1.118503,0.895059 -2.367989,1.632166 -3.716355,2.177933 l 0,-12.860848 c 0,-3.77029 1.403585,-7.213119 3.716355,-9.834087 1.516591,-1.718204 3.4222815,-3.083265 5.5809527,-3.957777 1.722057,-0.696014 3.604633,-1.079977 5.575817,-1.079977 l 45.335936,0 9.602938,-8.058095 c -0.453308,0.0565 -0.914321,0.08604 -1.383039,0.08604 -2.49512,0 -4.797617,-0.829567 -6.646805,-2.226731 l 0,-0.190056 0,0 z"
     id="path4"
     inkscape:connector-curvature="0"
     style="fill:#ffffff" /></svg>