<svg height="24" width="24" viewBox="0 0 24 24">
   <path d="M7.5,2A2,2 0 0,1 9.5,4A2,2 0 0,1 7.5,6A2,2 0 0,1 5.5,4A2,2 0 0,1 7.5,2M6,7H9A2,2 0 0,1 11,9V14.5H9.5V22H5.5V14.5H4V9A2,2 0 0,1 6,7M16.5,2A2,2 0 0,1 18.5,4A2,2 0 0,1 16.5,6A2,2 0 0,1 14.5,4A2,2 0 0,1 16.5,2M15,22V16H12L14.59,8.41C14.84,7.59 15.6,7 16.5,7C17.4,7 18.16,7.59 18.41,8.41L21,16H18V22H15Z"/>
</svg>
